-------------------------------------------------------------------------------
Test set: com.amazonaws.lambda.innovasolutions.LambdaFunctionHandlerTest
-------------------------------------------------------------------------------
Tests run: 1, Failures: 0, Errors: 0, Skipped: 0, Time elapsed: 0.652 sec
